Acceso compadre y GBIF desde R
…
---
class: .code80

# Compadre en R

```r
# comprobar que tenemos lo que queremos
compadre_db
```

```
## A COM(P)ADRE database ('CompadreDB') object with 792 SPECIES and 8994 MATRICES.
## 
## # A tibble: 8,994 × 59
##    mat        MatrixID SpeciesAuthor     SpeciesAccepted CommonName Kingdom Phylum
##    <list>        <int> <chr>             <chr>           <chr>      <chr>   <chr> 
##  1 <CompdrMt>   238259 Abies_balsamea    Abies balsamea  Balsam Fir Plantae Pinop…
##  2 <CompdrMt>   238260 Abies_balsamea    Abies balsamea  Balsam Fir Plantae Pinop…
##  3 <CompdrMt>   238261 Agave_angustifol… Agave vivipara  Caribbean… Plantae Magno…
##  4 <CompdrMt>   238262 Agave_angustifol… Agave vivipara  Caribbean… Plantae Magno…
##  5 <CompdrMt>   238263 Allium_vineale    Allium vineale  <NA>       Plantae Magno…
##  6 <CompdrMt>   238265 Araucaria_cunnin… Araucaria cunn… <NA>       Plantae Pinop…
##  7 <CompdrMt>   238266 Araucaria_cunnin… Araucaria cunn… <NA>       Plantae Pinop…
##  8 <CompdrMt>   238271 Ascophyllum_nodo… Ascophyllum no… <NA>       Chroma… Heter…
##  9 <CompdrMt>   238272 Ascophyllum_nodo… Ascophyllum no… <NA>       Chroma… Heter…
## 10 <CompdrMt>   238273 Ascophyllum_nodo… Ascophyllum no… <NA>       Chroma… Heter…
## # ℹ 8,984 more rows
## # ℹ 52 more variables: Class <chr>, Order <chr>, Family <chr>, Genus <chr>,
## #   Species <chr>, Infraspecies <chr>, InfraspeciesType <chr>,
## #   OrganismType <chr>, DicotMonoc <chr>, AngioGymno <chr>, Authors <chr>,
## #   Journal <chr>, SourceType <chr>, OtherType <chr>, YearPublication <chr>,
## #   DOI_ISBN <chr>, AdditionalSource <chr>, StudyDuration <chr>,
## #   StudyStart <chr>, StudyEnd <chr>, ProjectionInterval <chr>, …
```
…
